\relax 
\providecommand\hyper@newdestlabel[2]{}
\catcode `"\active 
\catcode `-\active 
\providecommand\HyperFirstAtBeginDocument{\AtBeginDocument}
\HyperFirstAtBeginDocument{\ifx\hyper@anchor\@undefined
\global\let\oldcontentsline\contentsline
\gdef\contentsline#1#2#3#4{\oldcontentsline{#1}{#2}{#3}}
\global\let\oldnewlabel\newlabel
\gdef\newlabel#1#2{\newlabelxx{#1}#2}
\gdef\newlabelxx#1#2#3#4#5#6{\oldnewlabel{#1}{{#2}{#3}}}
\AtEndDocument{\ifx\hyper@anchor\@undefined
\let\contentsline\oldcontentsline
\let\newlabel\oldnewlabel
\fi}
\fi}
\global\let\hyper@last\relax 
\gdef\HyperFirstAtBeginDocument#1{#1}
\providecommand*\HyPL@Entry[1]{}
\HyPL@Entry{0<</S/D>>}
\select@language{czech}
\@writefile{toc}{\select@language{czech}}
\@writefile{lof}{\select@language{czech}}
\@writefile{lot}{\select@language{czech}}
\HyPL@Entry{1<</S/r>>}
\HyPL@Entry{2<</S/D>>}
\@writefile{toc}{\contentsline {section}{\numberline {1}\IeC {\'U}vod}{1}{section.1}}
\newlabel{uvod}{{1}{1}{Úvod}{section.1}{}}
\@writefile{toc}{\contentsline {section}{\numberline {2}D\IeC {\r u}le\IeC {\v z}it\IeC {\'e} pojmy}{1}{section.2}}
\newlabel{analyza}{{2}{1}{Důležité pojmy}{section.2}{}}
\@writefile{toc}{\contentsline {subsection}{\numberline {2.1}TFTP Pakety }{1}{subsection.2.1}}
\newlabel{packet}{{2.1}{1}{TFTP Pakety}{subsection.2.1}{}}
\@writefile{toc}{\contentsline {subsubsection}{\numberline {2.1.1}RRQ}{1}{subsubsection.2.1.1}}
\@writefile{toc}{\contentsline {subsubsection}{\numberline {2.1.2}WRQ}{1}{subsubsection.2.1.2}}
\@writefile{toc}{\contentsline {subsubsection}{\numberline {2.1.3}DATA}{1}{subsubsection.2.1.3}}
\@writefile{toc}{\contentsline {subsubsection}{\numberline {2.1.4}ACK}{1}{subsubsection.2.1.4}}
\@writefile{toc}{\contentsline {subsubsection}{\numberline {2.1.5}ERROR}{2}{subsubsection.2.1.5}}
\@writefile{toc}{\contentsline {subsection}{\numberline {2.2}Roz\IeC {\v s}\IeC {\'\i }\IeC {\v r}en\IeC {\'\i } paket\IeC {\r u}}{2}{subsection.2.2}}
\@writefile{toc}{\contentsline {section}{\numberline {3}N\IeC {\'a}vrh programu}{2}{section.3}}
\newlabel{navrh}{{3}{2}{Návrh programu}{section.3}{}}
\@writefile{toc}{\contentsline {section}{\numberline {4}Implementace}{3}{section.4}}
\newlabel{impl}{{4}{3}{Implementace}{section.4}{}}
\@writefile{toc}{\contentsline {subsubsection}{\numberline {4.0.1}Pou\IeC {\v z}it\IeC {\'e} knihovny}{3}{subsubsection.4.0.1}}
\bibcite{IEN 133}{1}
\bibcite{RFC_1350}{2}
\bibcite{RFC_1785}{3}
\bibcite{RFC_2090}{4}
\bibcite{RFC_2347}{5}
\bibcite{RFC_2348}{6}
\bibcite{RFC_2349}{7}
\@writefile{toc}{\contentsline {subsubsection}{\numberline {4.0.2}P\IeC {\v r}\IeC {\'\i }klad spu\IeC {\v s}ten\IeC {\'\i }}{4}{subsubsection.4.0.2}}
\@writefile{toc}{\contentsline {section}{\numberline {A}Metriky k\IeC {\'o}du}{4}{appendix.A}}
\newlabel{metriky}{{A}{4}{Metriky kódu}{appendix.A}{}}
\@writefile{toc}{\contentsline {paragraph}{Po\IeC {\v c}et soubor\IeC {\r u}:}{4}{section*.3}}
\@writefile{toc}{\contentsline {paragraph}{Po\IeC {\v c}et \IeC {\v r}\IeC {\'a}dk\IeC {\r u} zdrojov\IeC {\'e}ho textu:}{4}{section*.4}}
\@writefile{toc}{\contentsline {paragraph}{Velikost statick\IeC {\'y}ch dat:}{4}{section*.5}}
\@writefile{toc}{\contentsline {paragraph}{Velikost spustiteln\IeC {\'e}ho souboru:}{4}{section*.6}}
